Modélisation, prédiction et clustering de données fonctionnelles issues de problématiques sportives
…
## 2 ## Compute REDI for the last date in the dataset
compute_redi(db_workload)

[1] 176.2764

## 3 ## Apply loop_redi() to compute REDI for all dates in the dataset 
db_loop <- loop_redi(data = db_workload)

db_loop

# A tibble: 689 × 4
   Input      Output  REDI Lambda
   <date>      <dbl> <dbl>  <dbl>
 1 2024-07-21     75  176.    0.1
 2 2024-07-20     NA  197.    0.1
 3 2024-07-19     NA  197.    0.1
 4 2024-07-18    105  197.    0.1
 5 2024-07-17     30  214.    0.1
 6 2024-07-16    225  249.    0.1
 7 2024-07-15    120  254.    0.1
 8 2024-07-14     NA  286.    0.1
 9 2024-07-13     NA  286.    0.1
10 2024-07-12     NA  286.    0.1
# ℹ 679 more rows
…
EM algorithm, step 3: 4.14 seconds 
 
Value of the likelihood: -1872.94807 --- Convergence ratio = 0.00163
 
EM algorithm, step 4: 8.92 seconds 
 
Value of the likelihood: -1871.44354 --- Convergence ratio = 8e-04
 
The EM algorithm successfully converged, training is completed. 

# Display the tibble of all individual hyperparameters of the kernels
mod_magma$hp_i

# A tibble: 30 × 4
   ID    se_variance se_lengthscale   noise
   <chr>       <dbl>          <dbl>   <dbl>
 1 ID_1         3.14           1.75 -0.0220
 2 ID_10        3.14           1.75 -0.0220
 3 ID_11        3.14           1.75 -0.0220
 4 ID_12        3.14           1.75 -0.0220
 5 ID_13        3.14           1.75 -0.0220
 6 ID_14        3.14           1.75 -0.0220
 7 ID_15        3.14           1.75 -0.0220
 8 ID_16        3.14           1.75 -0.0220
 9 ID_17        3.14           1.75 -0.0220
10 ID_18        3.14           1.75 -0.0220
# ℹ 20 more rows
…
Value of the likelihood: -1749.80156 --- Convergence ratio = 0.00236
 
EM algorithm, step 7: 3.35 seconds 
 
Value of the likelihood: -1746.83703 --- Convergence ratio = 0.0017
 
EM algorithm, step 8: 7.91 seconds 
 
Value of the likelihood: -1745.20604 --- Convergence ratio = 0.00093
 
The EM algorithm successfully converged, training is completed. 

mod_magma_dif_hp$hp_i

# A tibble: 30 × 4
   ID    se_variance se_lengthscale   noise
   <chr>       <dbl>          <dbl>   <dbl>
 1 ID_1       -1.84         5.27    -1.50  
 2 ID_10       3.75         4.62    -0.739 
 3 ID_11       3.66         1.36    -0.485 
 4 ID_12       2.34         1.83    -0.568 
 5 ID_13       2.01         0.00451 -0.313 
 6 ID_14       0.287        5.98    -1.05  
 7 ID_15      -0.936        1.74     0.326 
 8 ID_16       4.39         1.51    -0.368 
 9 ID_17       1.56        -2.59     0.672 
10 ID_18       4.37         2.49     0.0627
# ℹ 20 more rows
…
The hyper-posterior distribution of the mean process provided in 'hyperpost' argument isn't evaluated on the expected inputs.
 
 Start evaluating the hyper-posterior on the correct inputs...
 
The 'prior_mean' argument has not been specified. The hyper-prior mean function is thus set to be 0 everywhere.
 
Done!

# A tibble: 101 × 3
    Mean   Var Input
   <dbl> <dbl> <dbl>
 1  79.9  3.89  10  
 2  79.8  3.32  10.1
 3  79.6  2.86  10.2
 4  79.5  2.51  10.3
 5  79.3  2.24  10.4
 6  79.0  2.06  10.5
 7  78.8  1.94  10.6
 8  78.6  1.87  10.7
 9  78.3  1.86  10.8
10  78.0  1.87  10.9
# ℹ 91 more rows
…
# Display the cluster membership probabilities for the testing swimmer
pred_clust$mixture

# A tibble: 1 × 3
  ID        K1      K2
  <chr>  <dbl>   <dbl>
1 ID_101 0.998 0.00202

## 5 ## Compute the most probable cluster for each individual for the next plot

db_with_clust = data_allocate_cluster(mod_clust)

db_with_clust %>% print(n=30)

# A tibble: 695 × 5
   ID    Input Output Cluster Proba
   <chr> <dbl>  <dbl> <chr>   <dbl>
 1 ID_1   14.9   57.7 K2      0.807
 2 ID_1   14.9   56.4 K2      0.807
 3 ID_1   15.3   56.3 K2      0.807
 4 ID_1   15.4   55.9 K2      0.807
 5 ID_1   15.6   56.1 K2      0.807
 6 ID_1   15.8   56.2 K2      0.807
 7 ID_1   15.8   56.6 K2      0.807
 8 ID_1   16.0   55.5 K2      0.807
 9 ID_1   16.4   56.1 K2      0.807
10 ID_1   16.6   55.2 K2      0.807
11 ID_1   16.7   55.2 K2      0.807
12 ID_1   16.8   54.8 K2      0.807
13 ID_1   16.9   54.4 K2      0.807
14 ID_1   17.4   54.6 K2      0.807
15 ID_1   17.5   54.8 K2      0.807
16 ID_1   17.6   55.1 K2      0.807
17 ID_1   17.6   55.1 K2      0.807
18 ID_1   17.7   55.3 K2      0.807
19 ID_1   17.8   55.5 K2      0.807
20 ID_1   18.0   54   K2      0.807
21 ID_1   18.4   54.7 K2      0.807
22 ID_1   18.5   55.2 K2      0.807
23 ID_1   18.6   54.3 K2      0.807
24 ID_1   18.8   54.4 K2      0.807
25 ID_1   18.9   54.3 K2      0.807
26 ID_10  15.0   65.3 K1      0.879
27 ID_10  15.4   64.8 K1      0.879
28 ID_10  15.6   64.6 K1      0.879
29 ID_10  15.7   64.0 K1      0.879
30 ID_10  15.9   63.9 K1      0.879
# ℹ 665 more rows
…
